Steven Howley - Cats!
…
tableds<-ds %>%
  filter(category=="Tables & desks") %>%
  select(-category,-...1,-old_price) %>%
  mutate(price_usd=round(price*0.266,2)) %>% # Conversion rate from SR to USD 4/24/2020
  arrange(desc(price)) %>%
  select(-price)
  head(10)

[1] 10

tableds

# A tibble: 612 × 11
    item_id name        sella…¹ link  other…² short…³ desig…⁴ depth height width
      <dbl> <chr>       <lgl>   <chr> <chr>   <chr>   <chr>   <dbl>  <dbl> <dbl>
 1 59131626 MÖRBYLÅNGA… TRUE    http… No      Table … Ola Wi…    NA     74   100
 2 29161573 MÖRBYLÅNGA… TRUE    http… No      Table … S Lann…    NA     74   100
 3 49289392 BEKANT      TRUE    http… Yes     Desk s… K Malm…    NA     NA   160
 4 59288212 BEKANT      TRUE    http… Yes     Desk w… K Malm…    NA     NA   160
 5 29296690 BEKANT      TRUE    http… Yes     Confer… K Malm…    NA     73   140
 6 99288069 BEKANT      TRUE    http… Yes     Desk w… K Malm…    NA     NA   160
 7 89297286 MÖRBYLÅNGA… TRUE    http… No      Table … Carl Ö…    NA     NA   100
 8 29046583 BEKANT      TRUE    http… No      Desk c… K Malm…   120     NA    NA
 9 79061180 BEKANT      TRUE    http… No      Desk s… K Malm…    NA     NA   160
10 39307706 VEDBO / VE… TRUE    http… No      Table … Franci…    NA     NA   105
# … with 602 more rows, 1 more variable: price_usd <dbl>, and abbreviated
#   variable names ¹​sellable_online, ²​other_colors, ³​short_description,
#   ⁴​designer
…
